<svg xmlns="http://www.w3.org/2000/svg" width="13" height="13" viewBox="0 0 13 13">
<style
   id="style10"
   type="text/css">
	.st0{fill-rule:evenodd;clip-rule:evenodd;}
	.st1{fill:#FF0000;}
</style>
<polygon
   id="polygon14"
   points="5.2,6.5 3.3,4.6 4.5,3.3 6.5,5.2 8.4,3.3 9.6,4.6 7.7,6.5 9.6,8.4 8.4,9.6 6.5,7.7 4.5,9.6 3.3,8.4 "
   class="st0" />
<path
   id="path16"
   d="M6.5,12.9C2.9,12.9,0,10,0,6.5C0,2.9,2.9,0,6.5,0c3.6,0,6.5,2.9,6.5,6.5C12.9,10,10,12.9,6.5,12.9z M6.5,1.3  c-2.9,0-5.2,2.3-5.2,5.2c0,2.9,2.3,5.2,5.2,5.2c2.9,0,5.2-2.3,5.2-5.2C11.7,3.6,9.3,1.3,6.5,1.3z"
   class="st1" />
</svg>